{ "old_InputTopDir": 
  "/home/schnooru/CLIC/Projects/Delphes/CLICdet-Delphes/output-2018-01-11/9400DST" ,
  "InputTopDir": "/eos/user/s/schnooru/Data_CLIC/DelphesValid/output-2018-01-11/9400DST/",
  "HistoDir":"/home/schnooru/CLIC/Projects/Delphes/CLICdet-Delphes/MyAnalysisCode/HistoFiles/",
  "PlotDir":"/home/schnooru/CLIC/Projects/Delphes/CLICdet-Delphes/MyAnalysisCode/AllPlots/",
  "Label": "9400",
  "Delphes": 0,
 "Analysis" : "HZqq",
  "NeventsTotalInAllSample": 543500,
  "CrossSection": 1,
  
 "Color" : 9,
 "Nevents" : -1
 
}
